J:\Software\Workspace_3\Spring-Rest-Project\src\main\java\com\works\exception\EmployeeNotFoundException.java
J:\Software\Workspace_3\Spring-Rest-Project\src\main\java\com\works\exception\MissingHeaderInfoException.java
J:\Software\Workspace_3\Spring-Rest-Project\src\main\java\com\works\security\apiToken\SpringSecurityInitializer.java
J:\Software\Workspace_3\Spring-Rest-Project\src\main\java\com\works\exception\CustomExceptionHandler.java
J:\Software\Workspace_3\Spring-Rest-Project\src\main\java\com\works\repository\EmployeeRepository.java
J:\Software\Workspace_3\Spring-Rest-Project\src\main\java\com\works\security\apiToken\AuthTokenSecurityConfig.java
J:\Software\Workspace_3\Spring-Rest-Project\src\main\java\com\works\controller\ErrorController.java
J:\Software\Workspace_3\Spring-Rest-Project\src\main\java\com\works\exception\ErrorResponse.java
J:\Software\Workspace_3\Spring-Rest-Project\src\main\java\com\works\controller\EmployeeController.java
J:\Software\Workspace_3\Spring-Rest-Project\src\main\java\com\works\security\apiToken\PreAuthTokenHeaderFilter.java
J:\Software\Workspace_3\Spring-Rest-Project\src\main\java\com\works\model\Employee.java
